<?xml version="1.0" encoding="UTF-8" standalone="no"?>
<svg width="36px" height="36px" viewBox="0 0 36 36" version="1.1" xmlns="http://www.w3.org/2000/svg" xmlns:xlink="http://www.w3.org/1999/xlink">
    <!-- Generator: Sketch 40.1 (33804) - http://www.bohemiancoding.com/sketch -->
    <title>top</title>
    <desc>Created with Sketch.</desc>
    <defs></defs>
    <g id="Welcome" stroke="none" stroke-width="1" fill="none" fill-rule="evenodd">
        <g id="Desktop-HD_v5" transform="translate(-1156.000000, -1077.000000)">
            <g id="video-section" transform="translate(-62.000000, 693.000000)">
                <g id="social_right_side_square_01" transform="translate(1207.000000, 163.000000)">
                    <g id="social_right_side_square">
                        <g id="top" transform="translate(11.000000, 221.000000)">
                            <rect id="Rectangle-3" fill="#636363" x="0" y="0" width="36" height="36"></rect>
                            <polygon id="Page-1" fill="#FFFFFF" points="18.5 12 7 23.5 10.4908933 23.5 18.5 15.4913089 26.5091067 23.5 30 23.5"></polygon>
                        </g>
                    </g>
                </g>
            </g>
        </g>
    </g>
</svg>