<?xml version="1.0" encoding="UTF-8" standalone="no"?>
<svg width="36px" height="36px" viewBox="0 0 36 36" version="1.1" xmlns="http://www.w3.org/2000/svg" xmlns:xlink="http://www.w3.org/1999/xlink">
    <!-- Generator: Sketch 40.1 (33804) - http://www.bohemiancoding.com/sketch -->
    <title>PINTEREST</title>
    <desc>Created with Sketch.</desc>
    <defs></defs>
    <g id="Welcome" stroke="none" stroke-width="1" fill="none" fill-rule="evenodd">
        <g id="Desktop-HD_v5" transform="translate(-1156.000000, -967.000000)">
            <g id="video-section" transform="translate(-62.000000, 693.000000)">
                <g id="social_right_side_square_01" transform="translate(1207.000000, 163.000000)">
                    <g id="social_right_side_square">
                        <g id="PINTEREST" transform="translate(11.000000, 111.000000)">
                            <rect id="Rectangle-2-Copy" fill="#BD081C" x="0" y="0" width="36" height="36"></rect>
                            <path d="M17.0006631,21.5510126 C16.425965,24.5798163 15.7234294,27.4835908 13.643787,29 C13.0023167,24.4226695 14.5865887,20.9843665 15.3222251,17.3344315 C14.0678195,15.2118028 15.4734614,10.9407365 18.1198121,11.9937347 C21.3756737,13.2876148 15.2999677,19.8837654 19.3782126,20.7079258 C23.6367997,21.5676449 25.3751615,13.2824531 22.7350886,10.5880165 C18.9193672,6.69777305 11.6286341,10.4991196 12.5252088,16.0698013 C12.7432174,17.4313578 14.1431523,17.8442983 13.0844979,19.723751 C10.642459,19.180046 9.91424176,17.2443875 10.0078371,14.6640831 C10.1585027,10.4406197 13.78418,7.48350701 17.42013,7.0740077 C22.0188562,6.55668505 26.3345136,8.77050483 26.9308984,13.1178504 C27.6020453,18.0243862 24.855251,23.3387008 19.9380724,22.9567308 C18.6049098,22.8523486 18.0456206,22.1887762 17.0006631,21.5510126" id="Fill-4" fill="#FFFFFF"></path>
                        </g>
                    </g>
                </g>
            </g>
        </g>
    </g>
</svg>